%YAML 1.1
%TAG !u! tag:unity3d.com,2011:
--- !u!1 &5939074534445123621
GameObject:
  m_ObjectHideFlags: 0
  m_CorrespondingSourceObject: {fileID: 0}
  m_PrefabInstance: {fileID: 0}
  m_PrefabAsset: {fileID: 0}
  serializedVersion: 6
  m_Component:
  - component: {fileID: 5939074534445123619}
  - component: {fileID: 5939074534445123617}
  m_Layer: 0
  m_Name: SpecialLaserSpawner
  m_TagString: Untagged
  m_Icon: {fileID: 0}
  m_NavMeshLayer: 0
  m_StaticEditorFlags: 0
  m_IsActive: 1
--- !u!4 &5939074534445123619
Transform:
  m_ObjectHideFlags: 0
  m_CorrespondingSourceObject: {fileID: 0}
  m_PrefabInstance: {fileID: 0}
  m_PrefabAsset: {fileID: 0}
  m_GameObject: {fileID: 5939074534445123621}
  m_LocalRotation: {x: 0, y: 0, z: 0, w: 1}
  m_LocalPosition: {x: -5.24, y: 0.14, z: 0}
  m_LocalScale: {x: 10.534147, y: 9.5135765, z: 1}
  m_Children: []
  m_Father: {fileID: 0}
  m_RootOrder: 0
  m_LocalEulerAnglesHint: {x: 0, y: 0, z: 0}
--- !u!114 &5939074534445123617
MonoBehaviour:
  m_ObjectHideFlags: 0
  m_CorrespondingSourceObject: {fileID: 0}
  m_PrefabInstance: {fileID: 0}
  m_PrefabAsset: {fileID: 0}
  m_GameObject: {fileID: 5939074534445123621}
  m_Enabled: 1
  m_EditorHideFlags: 0
  m_Script: {fileID: 11500000, guid: 6bbda63a7dd2ed348bac277888136d0c, type: 3}
  m_Name: 
  m_EditorClassIdentifier: 
  bulletFab: {fileID: 0}
  missileFab: {fileID: 0}
  laserFab: {fileID: 1556012637890130263, guid: 371d0a94df279f94a8da8762461f9559, type: 3}
  delay: 0.2
  timePassed: 0
  player: {fileID: 0}
  bulletSpeed: 5
  rotationSpeed: 120
  tracking: 1
  splitShot: 0
  homingBullet: 0
  rotateSpeed: 1
  hp: 0
  mode: 0
  chargeValue: 1
  haveEntered: 0
  laserSpawned: 0
  laserNumber: 3
  elapsedTime: 0
  delaySpawn: 0.2
