%YAML 1.1
%TAG !u! tag:unity3d.com,2011:
--- !u!1 &6366927355402930638
GameObject:
  m_ObjectHideFlags: 0
  m_CorrespondingSourceObject: {fileID: 0}
  m_PrefabInstance: {fileID: 0}
  m_PrefabAsset: {fileID: 0}
  serializedVersion: 6
  m_Component:
  - component: {fileID: 6366927355402930636}
  - component: {fileID: 6366927355402930639}
  m_Layer: 0
  m_Name: EnemySpawner 2
  m_TagString: Untagged
  m_Icon: {fileID: 0}
  m_NavMeshLayer: 0
  m_StaticEditorFlags: 0
  m_IsActive: 1
--- !u!4 &6366927355402930636
Transform:
  m_ObjectHideFlags: 0
  m_CorrespondingSourceObject: {fileID: 0}
  m_PrefabInstance: {fileID: 0}
  m_PrefabAsset: {fileID: 0}
  m_GameObject: {fileID: 6366927355402930638}
  m_LocalRotation: {x: 0, y: 0, z: 0, w: 1}
  m_LocalPosition: {x: -5.3, y: 5.79, z: 0.014726639}
  m_LocalScale: {x: 1, y: 1, z: 1}
  m_Children: []
  m_Father: {fileID: 0}
  m_RootOrder: 0
  m_LocalEulerAnglesHint: {x: 0, y: 0, z: 0}
--- !u!114 &6366927355402930639
MonoBehaviour:
  m_ObjectHideFlags: 0
  m_CorrespondingSourceObject: {fileID: 0}
  m_PrefabInstance: {fileID: 0}
  m_PrefabAsset: {fileID: 0}
  m_GameObject: {fileID: 6366927355402930638}
  m_Enabled: 1
  m_EditorHideFlags: 0
  m_Script: {fileID: 11500000, guid: 26f67b5761e126141b257f5bf1d69a8f, type: 3}
  m_Name: 
  m_EditorClassIdentifier: 
  spawnerNumber: 1
  player: {fileID: 0}
  weakEnemyFabList:
  - {fileID: 2878038348804587647, guid: ba769d4755ca0b146abb22c815bb8e8a, type: 3}
  - {fileID: 2878038348804587647, guid: b6f3cd2fd7456f142a0d0e43cd5ffccb, type: 3}
  strongEnemyFabList:
  - {fileID: 4741643007343258190, guid: 3e7605d0ce2289249ba61505cebd0230, type: 3}
  spawnCounter: 0
  spawnDelay: 1.5
  spawnTimePassed: 0
  mode: 3
